{
        pot: true,
        paddingX: 2,
        paddingY: 2,
        bleed: true,
        edgePadding: true,
        rotation: false,
        minWidth: 16,
        minHeight: 16,
        maxWidth: 2048,
        maxHeight: 2048,
        stripWhitespaceX: false,
        stripWhitespaceY: false,
        alphaThreshold: 0,
        filterMin: Linear,
        filterMag: Linear,
        wrapX: ClampToEdge,
        wrapY: ClampToEdge,
        format: RGBA8888,
        alias: true,
        outputFormat: png,
        jpegQuality: 0.9,
        ignoreBlankImages: true,
        fast: false,
        debug: false,
        combineSubdirectories: true,
        flattenPaths: false,
        premultiplyAlpha: false,
        useIndexes: false
}